<?xml version="1.0" encoding="utf-8"?>
<!-- Generator: Adobe Illustrator 17.1.0, SVG Export Plug-In . SVG Version: 6.00 Build 0)  -->
<!DOCTYPE svg PUBLIC "-//W3C//DTD SVG 1.1//EN" "http://www.w3.org/Graphics/SVG/1.1/DTD/svg11.dtd">
<svg version="1.1" id="Layer_1" xmlns="http://www.w3.org/2000/svg" xmlns:xlink="http://www.w3.org/1999/xlink" x="0px" y="0px"
	 viewBox="0 0 197.6 197.7" enable-background="new 0 0 197.6 197.7" xml:space="preserve">
<g>
	<path fill="#303030" d="M39.1,101.2C49.7,92.7,59.7,83.2,71,75.8c19.3-12.6,39.5-12.4,58.7,0.6c10.7,7.3,20.3,16.1,30.2,24.1
		C127.8,149.5,79.5,157,39.1,101.2z M100.3,130.8c13.6-0.1,29.3-14.6,29-26.7c-0.4-15.1-15-29-29.9-28.5C84.3,76,69.9,90.7,70.4,105
		C70.9,117.4,86.6,130.9,100.3,130.8z"/>
	<path fill="#303030" d="M100.8,87.5c-0.9,0-1.8,0.1-2.7,0.3c0.7,1.4,1.2,2.9,1.2,4.6c0,5.5-4.5,10-10,10c-1.7,0-3.2-0.4-4.6-1.2
		c-0.2,0.9-0.3,1.8-0.3,2.7c0,9.1,7.4,16.5,16.5,16.5s16.5-7.4,16.5-16.5S109.9,87.5,100.8,87.5z"/>
</g>
<g>
	<path fill="#303030" d="M98.6,197.2C44.2,197.2,0,153,0,98.6S44.2,0,98.6,0s98.6,44.2,98.6,98.6S153,197.2,98.6,197.2z M98.6,4.4
		c-52,0-94.2,42.3-94.2,94.2s42.3,94.2,94.2,94.2s94.2-42.3,94.2-94.2S150.6,4.4,98.6,4.4z"/>
</g>
</svg>
